%YAML 1.1
%TAG !u! tag:unity3d.com,2011:
--- !u!21 &2100000
Material:
  serializedVersion: 8
  m_ObjectHideFlags: 0
  m_CorrespondingSourceObject: {fileID: 0}
  m_PrefabInstance: {fileID: 0}
  m_PrefabAsset: {fileID: 0}
  m_Name: PCWater 1
  m_Shader: {fileID: 4800000, guid: 4660d9c95eb9e14448132e3c6060918b, type: 3}
  m_Parent: {fileID: 0}
  m_ModifiedSerializedProperties: 0
  m_ValidKeywords: []
  m_InvalidKeywords: []
  m_LightmapFlags: 4
  m_EnableInstancingVariants: 0
  m_DoubleSidedGI: 0
  m_CustomRenderQueue: -1
  stringTagMap: {}
  disabledShaderPasses: []
  m_LockedProperties: 
  m_SavedProperties:
    serializedVersion: 3
    m_TexEnvs:
    - _EnvMap:
        m_Texture: {fileID: 0}
        m_Scale: {x: 1, y: 1}
        m_Offset: {x: 0, y: 0}
    - _HeightTex:
        m_Texture: {fileID: 2800000, guid: 4e316c84b6113124585c49b7601495c1, type: 3}
        m_Scale: {x: 25.6, y: 18.3}
        m_Offset: {x: 2.6, y: 0}
    - _MainTex:
        m_Texture: {fileID: 2800000, guid: 8c235d73d794d7240ae0e60873593580, type: 3}
        m_Scale: {x: 1, y: 1}
        m_Offset: {x: 0, y: 0}
    m_Ints: []
    m_Floats:
    - _CubemapOn: 1
    - _Cull: 2
    - _Diffuse: 0.642
    - _Fresnel: 0.5
    - _NoLight: 0
    - _NormalPower: 0.018
    - _RefMode: 1
    - _Reflection: 1.2
    - _Scrollx: 0
    - _Scrolly: 0.02
    - _Specular: 1.08
    - _Transparency: 0.8
    - _WaveHeight: 0.07
    - _WaveNormalPower: 0.5
    - _WaveScale: 1
    - _ZWrite: 0
    m_Colors:
    - _Color: {r: 0.6156863, g: 0.8862746, b: 0.3647059, a: 1}
    - _LightCol: {r: 0.9433962, g: 0.9433962, b: 0.9433962, a: 1}
    - _LightDir: {r: 0.59, g: 0.76, b: -0.53, a: 1}
  m_BuildTextureStacks: []
