%YAML 1.1
%TAG !u! tag:unity3d.com,2011:
--- !u!47 &1
QualitySettings:
  m_ObjectHideFlags: 0
  serializedVersion: 5
  m_CurrentQuality: 2
  m_QualitySettings:
  - serializedVersion: 3
    name: VRC Low
    pixelLightCount: 4
    shadows: 2
    shadowResolution: 1
    shadowProjection: 1
    shadowCascades: 2
    shadowDistance: 75
    shadowNearPlaneOffset: 2
    shadowCascade2Split: 0.33333334
    shadowCascade4Split: {x: 0.06666667, y: 0.2, z: 0.46666667}
    shadowmaskMode: 0
    skinWeights: 4
    globalTextureMipmapLimit: 0
    textureMipmapLimitSettings: []
    anisotropicTextures: 2
    antiAliasing: 0
    softParticles: 1
    softVegetation: 1
    realtimeReflectionProbes: 1
    billboardsFaceCameraPosition: 1
    useLegacyDetailDistribution: 1
    vSyncCount: 0
    realtimeGICPUUsage: 50
    lodBias: 1
    maximumLODLevel: 0
    enableLODCrossFade: 1
    streamingMipmapsActive: 0
    streamingMipmapsAddAllCameras: 1
    streamingMipmapsMemoryBudget: 512
    streamingMipmapsRenderersPerFrame: 512
    streamingMipmapsMaxLevelReduction: 2
    streamingMipmapsMaxFileIORequests: 1024
    particleRaycastBudget: 1024
    asyncUploadTimeSlice: 2
    asyncUploadBufferSize: 64
    asyncUploadPersistentBuffer: 1
    resolutionScalingFixedDPIFactor: 1
    customRenderPipeline: {fileID: 0}
    terrainQualityOverrides: 0
    terrainPixelError: 1
    terrainDetailDensityScale: 1
    terrainBasemapDistance: 1000
    terrainDetailDistance: 80
    terrainTreeDistance: 5000
    terrainBillboardStart: 50
    terrainFadeLength: 5
    terrainMaxTrees: 50
    excludedTargetPlatforms:
    - Android
  - serializedVersion: 3
    name: VRC Medium
    pixelLightCount: 4
    shadows: 2
    shadowResolution: 2
    shadowProjection: 1
    shadowCascades: 2
    shadowDistance: 75
    shadowNearPlaneOffset: 2
    shadowCascade2Split: 0.33333334
    shadowCascade4Split: {x: 0.06666667, y: 0.2, z: 0.46666667}
    shadowmaskMode: 0
    skinWeights: 4
    globalTextureMipmapLimit: 0
    textureMipmapLimitSettings: []
    anisotropicTextures: 2
    antiAliasing: 2
    softParticles: 1
    softVegetation: 1
    realtimeReflectionProbes: 1
    billboardsFaceCameraPosition: 1
    useLegacyDetailDistribution: 1
    vSyncCount: 0
    realtimeGICPUUsage: 50
    lodBias: 1.5
    maximumLODLevel: 0
    enableLODCrossFade: 1
    streamingMipmapsActive: 0
    streamingMipmapsAddAllCameras: 1
    streamingMipmapsMemoryBudget: 512
    streamingMipmapsRenderersPerFrame: 512
    streamingMipmapsMaxLevelReduction: 2
    streamingMipmapsMaxFileIORequests: 1024
    particleRaycastBudget: 2048
    asyncUploadTimeSlice: 2
    asyncUploadBufferSize: 64
    asyncUploadPersistentBuffer: 1
    resolutionScalingFixedDPIFactor: 1
    customRenderPipeline: {fileID: 0}
    terrainQualityOverrides: 0
    terrainPixelError: 1
    terrainDetailDensityScale: 1
    terrainBasemapDistance: 1000
    terrainDetailDistance: 80
    terrainTreeDistance: 5000
    terrainBillboardStart: 50
    terrainFadeLength: 5
    terrainMaxTrees: 50
    excludedTargetPlatforms:
    - Android
  - serializedVersion: 3
    name: VRC High
    pixelLightCount: 8
    shadows: 2
    shadowResolution: 3
    shadowProjection: 1
    shadowCascades: 4
    shadowDistance: 150
    shadowNearPlaneOffset: 2
    shadowCascade2Split: 0.33333334
    shadowCascade4Split: {x: 0.06666667, y: 0.2, z: 0.46666667}
    shadowmaskMode: 0
    skinWeights: 4
    globalTextureMipmapLimit: 0
    textureMipmapLimitSettings: []
    anisotropicTextures: 2
    antiAliasing: 4
    softParticles: 1
    softVegetation: 1
    realtimeReflectionProbes: 1
    billboardsFaceCameraPosition: 1
    useLegacyDetailDistribution: 1
    vSyncCount: 0
    realtimeGICPUUsage: 50
    lodBias: 2
    maximumLODLevel: 0
    enableLODCrossFade: 1
    streamingMipmapsActive: 0
    streamingMipmapsAddAllCameras: 1
    streamingMipmapsMemoryBudget: 512
    streamingMipmapsRenderersPerFrame: 512
    streamingMipmapsMaxLevelReduction: 2
    streamingMipmapsMaxFileIORequests: 1024
    particleRaycastBudget: 4096
    asyncUploadTimeSlice: 2
    asyncUploadBufferSize: 128
    asyncUploadPersistentBuffer: 1
    resolutionScalingFixedDPIFactor: 1
    customRenderPipeline: {fileID: 0}
    terrainQualityOverrides: 0
    terrainPixelError: 1
    terrainDetailDensityScale: 1
    terrainBasemapDistance: 1000
    terrainDetailDistance: 80
    terrainTreeDistance: 5000
    terrainBillboardStart: 50
    terrainFadeLength: 5
    terrainMaxTrees: 50
    excludedTargetPlatforms:
    - Android
  - serializedVersion: 3
    name: VRC Mobile
    pixelLightCount: 4
    shadows: 0
    shadowResolution: 1
    shadowProjection: 1
    shadowCascades: 1
    shadowDistance: 50
    shadowNearPlaneOffset: 2
    shadowCascade2Split: 0.33333334
    shadowCascade4Split: {x: 0.06666667, y: 0.2, z: 0.46666667}
    shadowmaskMode: 0
    skinWeights: 4
    globalTextureMipmapLimit: 0
    textureMipmapLimitSettings: []
    anisotropicTextures: 2
    antiAliasing: 2
    softParticles: 0
    softVegetation: 0
    realtimeReflectionProbes: 0
    billboardsFaceCameraPosition: 1
    useLegacyDetailDistribution: 1
    vSyncCount: 0
    realtimeGICPUUsage: 50
    lodBias: 2
    maximumLODLevel: 0
    enableLODCrossFade: 1
    streamingMipmapsActive: 0
    streamingMipmapsAddAllCameras: 1
    streamingMipmapsMemoryBudget: 512
    streamingMipmapsRenderersPerFrame: 512
    streamingMipmapsMaxLevelReduction: 2
    streamingMipmapsMaxFileIORequests: 1024
    particleRaycastBudget: 1024
    asyncUploadTimeSlice: 1
    asyncUploadBufferSize: 32
    asyncUploadPersistentBuffer: 1
    resolutionScalingFixedDPIFactor: 1
    customRenderPipeline: {fileID: 0}
    terrainQualityOverrides: 0
    terrainPixelError: 1
    terrainDetailDensityScale: 1
    terrainBasemapDistance: 1000
    terrainDetailDistance: 80
    terrainTreeDistance: 5000
    terrainBillboardStart: 50
    terrainFadeLength: 5
    terrainMaxTrees: 50
    excludedTargetPlatforms:
    - Standalone
  m_TextureMipmapLimitGroupNames: []
  m_PerPlatformDefaultQuality: {}
